id;name;deepfashion_alias
1;Сумка с верхней ручкой;top handle bag
2;Футболка;t shirt
3;Ювелирные изделия;jewelry
4;Ботинки;boots
5;Солнечные очки;sunglasses
6;Джинсы;jeans
7;Свитер;sweater
8;Майка;tank top
9;Юбка;skirt
10;Сандалии;sandals
11;Лосины;leggings
12;Рубашка на пуговицах;button down shirt
13;Брюки повседневные;pants casual
14;Туфли на каблуках или клинья;heels pumps or wedges
15;Женское белье;lingerie
16;Блузка;blouse
17;Легкая куртка;lightweight jacket
18;Повседневная одежда;casual dress
19;Зимняя куртка;winter jacket
20;Вечернее платье;formal dress
21;Часы;watches
22;Шапка;hat
23;Жилет;vest
24;Кроссовки;sneakers
25;Рюкзак;shoulder bag
26;Квартиры;flats
27;В целом;overall
28;Тренировочные брюки;sweatpants
29;Шорты;shorts
30;Детский комбинезон;rompers
31;Брюки костюм формальный;pants suit formal
32;Очки;glasses
33;Клатчи;clutches
34;Носки;socks
35;Рюкзак или сумка;backpack or messenger bag
36;Комбинезон;jumpsuit
37;Беговая обувь;running shoes
38;Блейзер;blazer
39;Китель;tunic
40;Трикотаж;hosiery
41;Джинсовая куртка;denim jacket
42;Ремни;belts
43;Кожаный пиджак;leather jacket
44;Плащ;trenchcoat
45;Повязка для волос;headwrap
46;Платье-свитер;sweater dress
47;Фуфайка;sweatshirt
48;Перчатки;gloves
49;Нижнее белье;underwear
